127.0.0.1 - - [05/May/2015:14:57:43 -0400] "GET / HTTP/1.1" 404 951
0:0:0:0:0:0:0:1 - - [05/May/2015:14:57:44 -0400] "GET /MentorEra/hello.jsp HTTP/1.1" 200 269
0:0:0:0:0:0:0:1 - - [05/May/2015:15:00:01 -0400] "GET /MentorEra/test.jsp HTTP/1.1" 200 39261
0:0:0:0:0:0:0:1 - - [05/May/2015:15:00:01 -0400] "GET /sites/all/themes/cgi/js/adrum.js HTTP/1.1" 404 1015
0:0:0:0:0:0:0:1 - - [05/May/2015:15:00:02 -0400] "GET /sites/default/files/images/featurettes_april2015_01_120x100.jpg HTTP/1.1" 404 1077
0:0:0:0:0:0:0:1 - - [05/May/2015:15:00:02 -0400] "GET /sites/default/files/images/ic_googleplus.png HTTP/1.1" 404 1039
0:0:0:0:0:0:0:1 - - [05/May/2015:15:00:02 -0400] "GET /sites/default/files/images/ic_linkedin.png HTTP/1.1" 404 1035
0:0:0:0:0:0:0:1 - - [05/May/2015:15:00:02 -0400] "GET /sites/default/files/images/featurettes_april2015_03_120x100.jpg HTTP/1.1" 404 1077
0:0:0:0:0:0:0:1 - - [05/May/2015:15:00:02 -0400] "GET /sites/default/files/images/ic_youtube.png HTTP/1.1" 404 1033
0:0:0:0:0:0:0:1 - - [05/May/2015:15:00:02 -0400] "GET /sites/default/files/images/ic_facebook.png HTTP/1.1" 404 1035
0:0:0:0:0:0:0:1 - - [05/May/2015:15:00:02 -0400] "GET /sites/default/files/images/ic_rss.png HTTP/1.1" 404 1025
0:0:0:0:0:0:0:1 - - [05/May/2015:15:00:02 -0400] "GET /sites/default/files/images/ic_twitter.png HTTP/1.1" 404 1033
0:0:0:0:0:0:0:1 - - [05/May/2015:15:00:02 -0400] "GET /sites/default/files/images/featurettes_april2015_02_120x100.jpg HTTP/1.1" 404 1077
0:0:0:0:0:0:0:1 - - [05/May/2015:15:00:21 -0400] "GET /MentorEra/test.jsp HTTP/1.1" 200 39261
0:0:0:0:0:0:0:1 - - [05/May/2015:15:00:21 -0400] "GET /sites/all/themes/cgi/js/adrum.js HTTP/1.1" 404 1015
0:0:0:0:0:0:0:1 - - [05/May/2015:15:00:21 -0400] "GET /sites/default/files/images/featurettes_april2015_01_120x100.jpg HTTP/1.1" 404 1077
0:0:0:0:0:0:0:1 - - [05/May/2015:15:00:21 -0400] "GET /sites/default/files/images/featurettes_april2015_02_120x100.jpg HTTP/1.1" 404 1077
0:0:0:0:0:0:0:1 - - [05/May/2015:15:00:21 -0400] "GET /sites/default/files/images/featurettes_april2015_03_120x100.jpg HTTP/1.1" 404 1077
0:0:0:0:0:0:0:1 - - [05/May/2015:15:00:21 -0400] "GET /sites/default/files/images/ic_facebook.png HTTP/1.1" 404 1035
0:0:0:0:0:0:0:1 - - [05/May/2015:15:00:21 -0400] "GET /sites/default/files/images/ic_googleplus.png HTTP/1.1" 404 1039
0:0:0:0:0:0:0:1 - - [05/May/2015:15:00:21 -0400] "GET /sites/default/files/images/ic_linkedin.png HTTP/1.1" 404 1035
0:0:0:0:0:0:0:1 - - [05/May/2015:15:00:21 -0400] "GET /sites/default/files/images/ic_twitter.png HTTP/1.1" 404 1033
0:0:0:0:0:0:0:1 - - [05/May/2015:15:00:21 -0400] "GET /sites/default/files/images/ic_youtube.png HTTP/1.1" 404 1033
0:0:0:0:0:0:0:1 - - [05/May/2015:15:00:21 -0400] "GET /sites/default/files/images/ic_rss.png HTTP/1.1" 404 1025
0:0:0:0:0:0:0:1 - - [05/May/2015:15:00:21 -0400] "GET /sites/default/files/images/featurettes_april2015_01_120x100.jpg HTTP/1.1" 404 1077
0:0:0:0:0:0:0:1 - - [05/May/2015:15:00:21 -0400] "GET /sites/default/files/images/featurettes_april2015_02_120x100.jpg HTTP/1.1" 404 1077
0:0:0:0:0:0:0:1 - - [05/May/2015:15:00:21 -0400] "GET /sites/default/files/images/featurettes_april2015_03_120x100.jpg HTTP/1.1" 404 1077
0:0:0:0:0:0:0:1 - - [05/May/2015:15:00:21 -0400] "GET /sites/default/files/images/ic_facebook.png HTTP/1.1" 404 1035
0:0:0:0:0:0:0:1 - - [05/May/2015:15:00:21 -0400] "GET /sites/default/files/images/ic_googleplus.png HTTP/1.1" 404 1039
0:0:0:0:0:0:0:1 - - [05/May/2015:15:00:21 -0400] "GET /sites/default/files/images/ic_linkedin.png HTTP/1.1" 404 1035
0:0:0:0:0:0:0:1 - - [05/May/2015:15:00:21 -0400] "GET /sites/default/files/images/ic_twitter.png HTTP/1.1" 404 1033
0:0:0:0:0:0:0:1 - - [05/May/2015:15:00:21 -0400] "GET /sites/default/files/images/ic_youtube.png HTTP/1.1" 404 1033
0:0:0:0:0:0:0:1 - - [05/May/2015:15:00:21 -0400] "GET /sites/default/files/images/ic_rss.png HTTP/1.1" 404 1025
0:0:0:0:0:0:0:1 - - [05/May/2015:15:00:38 -0400] "GET /en/communications HTTP/1.1" 404 985
0:0:0:0:0:0:0:1 - - [05/May/2015:15:00:38 -0400] "GET /favicon.ico HTTP/1.1" 404 973
0:0:0:0:0:0:0:1 - - [05/May/2015:15:00:45 -0400] "GET /fr HTTP/1.1" 404 955
0:0:0:0:0:0:0:1 - - [05/May/2015:15:10:47 -0400] "GET /en/contact-resources HTTP/1.1" 404 991
0:0:0:0:0:0:0:1 - - [05/May/2015:15:10:51 -0400] "GET /sites/all/themes/cgi/js/adrum.js HTTP/1.1" 404 1015
0:0:0:0:0:0:0:1 - - [05/May/2015:15:10:51 -0400] "GET /sites/default/files/images/featurettes_april2015_01_120x100.jpg HTTP/1.1" 404 1077
0:0:0:0:0:0:0:1 - - [05/May/2015:15:10:51 -0400] "GET /sites/default/files/images/ic_googleplus.png HTTP/1.1" 404 1039
0:0:0:0:0:0:0:1 - - [05/May/2015:15:10:51 -0400] "GET /sites/default/files/images/featurettes_april2015_02_120x100.jpg HTTP/1.1" 404 1077
0:0:0:0:0:0:0:1 - - [05/May/2015:15:10:51 -0400] "GET /sites/default/files/images/ic_linkedin.png HTTP/1.1" 404 1035
0:0:0:0:0:0:0:1 - - [05/May/2015:15:10:51 -0400] "GET /sites/default/files/images/featurettes_april2015_03_120x100.jpg HTTP/1.1" 404 1077
0:0:0:0:0:0:0:1 - - [05/May/2015:15:10:51 -0400] "GET /sites/default/files/images/ic_facebook.png HTTP/1.1" 404 1035
0:0:0:0:0:0:0:1 - - [05/May/2015:15:10:51 -0400] "GET /sites/default/files/images/ic_twitter.png HTTP/1.1" 404 1033
0:0:0:0:0:0:0:1 - - [05/May/2015:15:10:51 -0400] "GET /sites/default/files/images/ic_youtube.png HTTP/1.1" 404 1033
0:0:0:0:0:0:0:1 - - [05/May/2015:15:10:51 -0400] "GET /sites/default/files/images/ic_rss.png HTTP/1.1" 404 1025
0:0:0:0:0:0:0:1 - - [05/May/2015:15:16:18 -0400] "GET /MentorEra/test.jsp HTTP/1.1" 200 39285
0:0:0:0:0:0:0:1 - - [05/May/2015:15:16:18 -0400] "GET /sites/all/themes/cgi/js/adrum.js HTTP/1.1" 404 1015
0:0:0:0:0:0:0:1 - - [05/May/2015:15:16:19 -0400] "GET /sites/default/files/images/featurettes_april2015_01_120x100.jpg HTTP/1.1" 404 1077
0:0:0:0:0:0:0:1 - - [05/May/2015:15:16:19 -0400] "GET /sites/default/files/images/ic_googleplus.png HTTP/1.1" 404 1039
0:0:0:0:0:0:0:1 - - [05/May/2015:15:16:19 -0400] "GET /sites/default/files/images/featurettes_april2015_02_120x100.jpg HTTP/1.1" 404 1077
0:0:0:0:0:0:0:1 - - [05/May/2015:15:16:19 -0400] "GET /sites/default/files/images/ic_facebook.png HTTP/1.1" 404 1035
0:0:0:0:0:0:0:1 - - [05/May/2015:15:16:19 -0400] "GET /sites/default/files/images/featurettes_april2015_03_120x100.jpg HTTP/1.1" 404 1077
0:0:0:0:0:0:0:1 - - [05/May/2015:15:16:19 -0400] "GET /sites/default/files/images/ic_youtube.png HTTP/1.1" 404 1033
0:0:0:0:0:0:0:1 - - [05/May/2015:15:16:19 -0400] "GET /sites/default/files/images/ic_twitter.png HTTP/1.1" 404 1033
0:0:0:0:0:0:0:1 - - [05/May/2015:15:16:19 -0400] "GET /sites/default/files/images/ic_linkedin.png HTTP/1.1" 404 1035
0:0:0:0:0:0:0:1 - - [05/May/2015:15:16:19 -0400] "GET /sites/default/files/images/ic_rss.png HTTP/1.1" 404 1025
0:0:0:0:0:0:0:1 - - [05/May/2015:15:16:20 -0400] "GET /MentorEra/test.jsp HTTP/1.1" 200 39285
0:0:0:0:0:0:0:1 - - [05/May/2015:15:16:20 -0400] "GET /sites/all/themes/cgi/js/adrum.js HTTP/1.1" 404 1015
0:0:0:0:0:0:0:1 - - [05/May/2015:15:16:21 -0400] "GET /sites/default/files/images/ic_youtube.png HTTP/1.1" 404 1033
0:0:0:0:0:0:0:1 - - [05/May/2015:15:16:21 -0400] "GET /sites/default/files/images/featurettes_april2015_01_120x100.jpg HTTP/1.1" 404 1077
0:0:0:0:0:0:0:1 - - [05/May/2015:15:16:21 -0400] "GET /sites/default/files/images/ic_googleplus.png HTTP/1.1" 404 1039
0:0:0:0:0:0:0:1 - - [05/May/2015:15:16:21 -0400] "GET /sites/default/files/images/featurettes_april2015_02_120x100.jpg HTTP/1.1" 404 1077
0:0:0:0:0:0:0:1 - - [05/May/2015:15:16:21 -0400] "GET /sites/default/files/images/ic_linkedin.png HTTP/1.1" 404 1035
0:0:0:0:0:0:0:1 - - [05/May/2015:15:16:21 -0400] "GET /sites/default/files/images/ic_facebook.png HTTP/1.1" 404 1035
0:0:0:0:0:0:0:1 - - [05/May/2015:15:16:21 -0400] "GET /sites/default/files/images/featurettes_april2015_03_120x100.jpg HTTP/1.1" 404 1077
0:0:0:0:0:0:0:1 - - [05/May/2015:15:16:21 -0400] "GET /sites/default/files/images/ic_twitter.png HTTP/1.1" 404 1033
0:0:0:0:0:0:0:1 - - [05/May/2015:15:16:21 -0400] "GET /sites/default/files/images/ic_rss.png HTTP/1.1" 404 1025
0:0:0:0:0:0:0:1 - - [05/May/2015:15:16:23 -0400] "GET /MentorEra/test.jsp HTTP/1.1" 200 39285
0:0:0:0:0:0:0:1 - - [05/May/2015:15:16:23 -0400] "GET /sites/all/themes/cgi/js/adrum.js HTTP/1.1" 404 1015
0:0:0:0:0:0:0:1 - - [05/May/2015:15:16:23 -0400] "GET /sites/default/files/images/featurettes_april2015_01_120x100.jpg HTTP/1.1" 404 1077
0:0:0:0:0:0:0:1 - - [05/May/2015:15:16:23 -0400] "GET /sites/default/files/images/ic_facebook.png HTTP/1.1" 404 1035
0:0:0:0:0:0:0:1 - - [05/May/2015:15:16:23 -0400] "GET /sites/default/files/images/featurettes_april2015_02_120x100.jpg HTTP/1.1" 404 1077
0:0:0:0:0:0:0:1 - - [05/May/2015:15:16:23 -0400] "GET /sites/default/files/images/ic_linkedin.png HTTP/1.1" 404 1035
0:0:0:0:0:0:0:1 - - [05/May/2015:15:16:23 -0400] "GET /sites/default/files/images/ic_googleplus.png HTTP/1.1" 404 1039
0:0:0:0:0:0:0:1 - - [05/May/2015:15:16:23 -0400] "GET /sites/default/files/images/ic_youtube.png HTTP/1.1" 404 1033
0:0:0:0:0:0:0:1 - - [05/May/2015:15:16:23 -0400] "GET /sites/default/files/images/ic_twitter.png HTTP/1.1" 404 1033
0:0:0:0:0:0:0:1 - - [05/May/2015:15:16:23 -0400] "GET /sites/default/files/images/featurettes_april2015_03_120x100.jpg HTTP/1.1" 404 1077
0:0:0:0:0:0:0:1 - - [05/May/2015:15:16:23 -0400] "GET /sites/default/files/images/ic_rss.png HTTP/1.1" 404 1025
0:0:0:0:0:0:0:1 - - [05/May/2015:15:16:24 -0400] "GET /MentorEra/test.jsp HTTP/1.1" 200 39285
0:0:0:0:0:0:0:1 - - [05/May/2015:15:16:24 -0400] "GET /sites/all/themes/cgi/js/adrum.js HTTP/1.1" 404 1015
0:0:0:0:0:0:0:1 - - [05/May/2015:15:16:24 -0400] "GET /sites/default/files/images/featurettes_april2015_01_120x100.jpg HTTP/1.1" 404 1077
0:0:0:0:0:0:0:1 - - [05/May/2015:15:16:24 -0400] "GET /sites/default/files/images/featurettes_april2015_03_120x100.jpg HTTP/1.1" 404 1077
0:0:0:0:0:0:0:1 - - [05/May/2015:15:16:24 -0400] "GET /sites/default/files/images/featurettes_april2015_02_120x100.jpg HTTP/1.1" 404 1077
0:0:0:0:0:0:0:1 - - [05/May/2015:15:16:24 -0400] "GET /sites/default/files/images/ic_facebook.png HTTP/1.1" 404 1035
0:0:0:0:0:0:0:1 - - [05/May/2015:15:16:24 -0400] "GET /sites/default/files/images/ic_linkedin.png HTTP/1.1" 404 1035
0:0:0:0:0:0:0:1 - - [05/May/2015:15:16:24 -0400] "GET /sites/default/files/images/ic_rss.png HTTP/1.1" 404 1025
0:0:0:0:0:0:0:1 - - [05/May/2015:15:16:24 -0400] "GET /sites/default/files/images/ic_twitter.png HTTP/1.1" 404 1033
0:0:0:0:0:0:0:1 - - [05/May/2015:15:16:24 -0400] "GET /sites/default/files/images/ic_googleplus.png HTTP/1.1" 404 1039
0:0:0:0:0:0:0:1 - - [05/May/2015:15:16:24 -0400] "GET /sites/default/files/images/ic_youtube.png HTTP/1.1" 404 1033
0:0:0:0:0:0:0:1 - - [05/May/2015:15:16:25 -0400] "GET /MentorEra/test.jsp HTTP/1.1" 200 39285
0:0:0:0:0:0:0:1 - - [05/May/2015:15:16:25 -0400] "GET /sites/all/themes/cgi/js/adrum.js HTTP/1.1" 404 1015
0:0:0:0:0:0:0:1 - - [05/May/2015:15:16:25 -0400] "GET /sites/default/files/images/featurettes_april2015_02_120x100.jpg HTTP/1.1" 404 1077
0:0:0:0:0:0:0:1 - - [05/May/2015:15:16:25 -0400] "GET /sites/default/files/images/featurettes_april2015_03_120x100.jpg HTTP/1.1" 404 1077
0:0:0:0:0:0:0:1 - - [05/May/2015:15:16:25 -0400] "GET /sites/default/files/images/featurettes_april2015_01_120x100.jpg HTTP/1.1" 404 1077
0:0:0:0:0:0:0:1 - - [05/May/2015:15:16:25 -0400] "GET /sites/default/files/images/ic_googleplus.png HTTP/1.1" 404 1039
0:0:0:0:0:0:0:1 - - [05/May/2015:15:16:25 -0400] "GET /sites/default/files/images/ic_facebook.png HTTP/1.1" 404 1035
0:0:0:0:0:0:0:1 - - [05/May/2015:15:16:25 -0400] "GET /sites/default/files/images/ic_twitter.png HTTP/1.1" 404 1033
0:0:0:0:0:0:0:1 - - [05/May/2015:15:16:25 -0400] "GET /sites/default/files/images/ic_linkedin.png HTTP/1.1" 404 1035
0:0:0:0:0:0:0:1 - - [05/May/2015:15:16:25 -0400] "GET /sites/default/files/images/ic_youtube.png HTTP/1.1" 404 1033
0:0:0:0:0:0:0:1 - - [05/May/2015:15:16:25 -0400] "GET /sites/default/files/images/ic_rss.png HTTP/1.1" 404 1025
0:0:0:0:0:0:0:1 - - [05/May/2015:15:16:26 -0400] "GET /MentorEra/test.jsp HTTP/1.1" 200 39285
0:0:0:0:0:0:0:1 - - [05/May/2015:15:16:26 -0400] "GET /sites/all/themes/cgi/js/adrum.js HTTP/1.1" 404 1015
0:0:0:0:0:0:0:1 - - [05/May/2015:15:16:26 -0400] "GET /sites/default/files/images/featurettes_april2015_01_120x100.jpg HTTP/1.1" 404 1077
0:0:0:0:0:0:0:1 - - [05/May/2015:15:16:26 -0400] "GET /sites/default/files/images/featurettes_april2015_02_120x100.jpg HTTP/1.1" 404 1077
0:0:0:0:0:0:0:1 - - [05/May/2015:15:16:26 -0400] "GET /sites/default/files/images/featurettes_april2015_03_120x100.jpg HTTP/1.1" 404 1077
0:0:0:0:0:0:0:1 - - [05/May/2015:15:16:26 -0400] "GET /sites/default/files/images/ic_googleplus.png HTTP/1.1" 404 1039
0:0:0:0:0:0:0:1 - - [05/May/2015:15:16:26 -0400] "GET /sites/default/files/images/ic_twitter.png HTTP/1.1" 404 1033
0:0:0:0:0:0:0:1 - - [05/May/2015:15:16:26 -0400] "GET /sites/default/files/images/ic_facebook.png HTTP/1.1" 404 1035
0:0:0:0:0:0:0:1 - - [05/May/2015:15:16:26 -0400] "GET /sites/default/files/images/ic_rss.png HTTP/1.1" 404 1025
0:0:0:0:0:0:0:1 - - [05/May/2015:15:16:26 -0400] "GET /sites/default/files/images/ic_linkedin.png HTTP/1.1" 404 1035
0:0:0:0:0:0:0:1 - - [05/May/2015:15:16:26 -0400] "GET /sites/default/files/images/ic_youtube.png HTTP/1.1" 404 1033
0:0:0:0:0:0:0:1 - - [05/May/2015:15:16:28 -0400] "GET /en HTTP/1.1" 404 955
0:0:0:0:0:0:0:1 - - [05/May/2015:15:16:30 -0400] "GET /sites/all/themes/cgi/js/adrum.js HTTP/1.1" 404 1015
0:0:0:0:0:0:0:1 - - [05/May/2015:15:16:30 -0400] "GET /sites/default/files/images/ic_facebook.png HTTP/1.1" 404 1035
0:0:0:0:0:0:0:1 - - [05/May/2015:15:16:30 -0400] "GET /sites/default/files/images/ic_googleplus.png HTTP/1.1" 404 1039
0:0:0:0:0:0:0:1 - - [05/May/2015:15:16:30 -0400] "GET /sites/default/files/images/ic_linkedin.png HTTP/1.1" 404 1035
0:0:0:0:0:0:0:1 - - [05/May/2015:15:16:30 -0400] "GET /sites/default/files/images/ic_twitter.png HTTP/1.1" 404 1033
0:0:0:0:0:0:0:1 - - [05/May/2015:15:16:30 -0400] "GET /sites/default/files/images/ic_youtube.png HTTP/1.1" 404 1033
0:0:0:0:0:0:0:1 - - [05/May/2015:15:16:31 -0400] "GET /sites/default/files/images/featurettes_april2015_01_120x100.jpg HTTP/1.1" 404 1077
0:0:0:0:0:0:0:1 - - [05/May/2015:15:16:31 -0400] "GET /sites/default/files/images/featurettes_april2015_02_120x100.jpg HTTP/1.1" 404 1077
0:0:0:0:0:0:0:1 - - [05/May/2015:15:16:31 -0400] "GET /sites/default/files/images/featurettes_april2015_03_120x100.jpg HTTP/1.1" 404 1077
0:0:0:0:0:0:0:1 - - [05/May/2015:15:16:31 -0400] "GET /sites/default/files/images/ic_rss.png HTTP/1.1" 404 1025
0:0:0:0:0:0:0:1 - - [05/May/2015:15:19:25 -0400] "GET /sites/all/themes/cgi/js/adrum.js HTTP/1.1" 404 1015
0:0:0:0:0:0:0:1 - - [05/May/2015:15:19:25 -0400] "GET /MentorEra/test.jsp HTTP/1.1" 200 36591
0:0:0:0:0:0:0:1 - - [05/May/2015:15:19:25 -0400] "GET /sites/default/files/images/featurettes_april2015_02_120x100.jpg HTTP/1.1" 404 1077
0:0:0:0:0:0:0:1 - - [05/May/2015:15:19:25 -0400] "GET /sites/default/files/images/featurettes_april2015_01_120x100.jpg HTTP/1.1" 404 1077
0:0:0:0:0:0:0:1 - - [05/May/2015:15:19:25 -0400] "GET /sites/default/files/images/ic_youtube.png HTTP/1.1" 404 1033
0:0:0:0:0:0:0:1 - - [05/May/2015:15:19:25 -0400] "GET /sites/default/files/images/ic_googleplus.png HTTP/1.1" 404 1039
0:0:0:0:0:0:0:1 - - [05/May/2015:15:19:25 -0400] "GET /sites/default/files/images/ic_facebook.png HTTP/1.1" 404 1035
0:0:0:0:0:0:0:1 - - [05/May/2015:15:19:25 -0400] "GET /sites/default/files/images/ic_linkedin.png HTTP/1.1" 404 1035
0:0:0:0:0:0:0:1 - - [05/May/2015:15:19:25 -0400] "GET /sites/default/files/images/ic_twitter.png HTTP/1.1" 404 1033
0:0:0:0:0:0:0:1 - - [05/May/2015:15:19:25 -0400] "GET /sites/default/files/images/featurettes_april2015_03_120x100.jpg HTTP/1.1" 404 1077
0:0:0:0:0:0:0:1 - - [05/May/2015:15:19:25 -0400] "GET /sites/default/files/images/ic_rss.png HTTP/1.1" 404 1025
0:0:0:0:0:0:0:1 - - [05/May/2015:16:26:07 -0400] "GET /MentorEra/index.html HTTP/1.1" 200 6692
0:0:0:0:0:0:0:1 - - [05/May/2015:16:26:07 -0400] "GET /MentorEra/css/reset.css HTTP/1.1" 200 1068
0:0:0:0:0:0:0:1 - - [05/May/2015:16:26:07 -0400] "GET /MentorEra/css/jqpagination.css HTTP/1.1" 200 2433
0:0:0:0:0:0:0:1 - - [05/May/2015:16:26:07 -0400] "GET /MentorEra/css/demo.css HTTP/1.1" 200 4506
0:0:0:0:0:0:0:1 - - [05/May/2015:16:26:07 -0400] "GET /MentorEra/js/jquery.jqpagination.js HTTP/1.1" 200 10951
0:0:0:0:0:0:0:1 - - [05/May/2015:16:26:07 -0400] "GET /MentorEra/js/scripts.js HTTP/1.1" 200 225
0:0:0:0:0:0:0:1 - - [05/May/2015:16:26:07 -0400] "GET /MentorEra/js/demo.js HTTP/1.1" 200 134
0:0:0:0:0:0:0:1 - - [05/May/2015:16:26:07 -0400] "GET /MentorEra/js/jquery-1.7.2.min.js HTTP/1.1" 200 94839
0:0:0:0:0:0:0:1 - - [05/May/2015:16:34:34 -0400] "GET /MentorEra/index.html HTTP/1.1" 200 2884
0:0:0:0:0:0:0:1 - - [05/May/2015:16:34:34 -0400] "GET /MentorEra/css/reset.css HTTP/1.1" 304 -
0:0:0:0:0:0:0:1 - - [05/May/2015:16:34:34 -0400] "GET /MentorEra/js/jquery-1.7.2.min.js HTTP/1.1" 304 -
0:0:0:0:0:0:0:1 - - [05/May/2015:16:34:34 -0400] "GET /MentorEra/css/demo.css HTTP/1.1" 304 -
0:0:0:0:0:0:0:1 - - [05/May/2015:16:34:34 -0400] "GET /MentorEra/css/jqpagination.css HTTP/1.1" 304 -
0:0:0:0:0:0:0:1 - - [05/May/2015:16:34:34 -0400] "GET /MentorEra/js/scripts.js HTTP/1.1" 304 -
0:0:0:0:0:0:0:1 - - [05/May/2015:16:34:34 -0400] "GET /MentorEra/js/jquery.jqpagination.js HTTP/1.1" 304 -
0:0:0:0:0:0:0:1 - - [05/May/2015:16:34:34 -0400] "GET /MentorEra/js/demo.js HTTP/1.1" 304 -
0:0:0:0:0:0:0:1 - - [05/May/2015:17:13:01 -0400] "GET /MentorEra/index.html HTTP/1.1" 304 -
0:0:0:0:0:0:0:1 - - [05/May/2015:17:13:01 -0400] "GET /MentorEra/css/reset.css HTTP/1.1" 304 -
0:0:0:0:0:0:0:1 - - [05/May/2015:17:13:01 -0400] "GET /MentorEra/css/demo.css HTTP/1.1" 304 -
0:0:0:0:0:0:0:1 - - [05/May/2015:17:13:01 -0400] "GET /MentorEra/css/jqpagination.css HTTP/1.1" 304 -
0:0:0:0:0:0:0:1 - - [05/May/2015:17:13:01 -0400] "GET /MentorEra/js/jquery-1.7.2.min.js HTTP/1.1" 304 -
0:0:0:0:0:0:0:1 - - [05/May/2015:17:13:01 -0400] "GET /MentorEra/js/jquery.jqpagination.js HTTP/1.1" 304 -
0:0:0:0:0:0:0:1 - - [05/May/2015:17:13:01 -0400] "GET /MentorEra/js/scripts.js HTTP/1.1" 200 225
0:0:0:0:0:0:0:1 - - [05/May/2015:17:13:01 -0400] "GET /MentorEra/js/demo.js HTTP/1.1" 304 -
0:0:0:0:0:0:0:1 - - [05/May/2015:17:13:02 -0400] "GET /MentorEra/index.html HTTP/1.1" 304 -
0:0:0:0:0:0:0:1 - - [05/May/2015:17:13:02 -0400] "GET /MentorEra/css/reset.css HTTP/1.1" 304 -
0:0:0:0:0:0:0:1 - - [05/May/2015:17:13:02 -0400] "GET /MentorEra/css/demo.css HTTP/1.1" 304 -
0:0:0:0:0:0:0:1 - - [05/May/2015:17:13:02 -0400] "GET /MentorEra/css/jqpagination.css HTTP/1.1" 304 -
0:0:0:0:0:0:0:1 - - [05/May/2015:17:13:02 -0400] "GET /MentorEra/js/jquery-1.7.2.min.js HTTP/1.1" 304 -
0:0:0:0:0:0:0:1 - - [05/May/2015:17:13:02 -0400] "GET /MentorEra/js/jquery.jqpagination.js HTTP/1.1" 304 -
0:0:0:0:0:0:0:1 - - [05/May/2015:17:13:02 -0400] "GET /MentorEra/js/demo.js HTTP/1.1" 304 -
0:0:0:0:0:0:0:1 - - [05/May/2015:17:13:02 -0400] "GET /MentorEra/js/scripts.js HTTP/1.1" 304 -
